method,model,metric,0,1,2,3,4,mean,std,pca_n_components,dataset,n_samples,n_features,n_classes
none,knn,accuracy,0.6666666666666666,0.75,0.5833333333333334,0.5,0.75,0.65,0.097182531580755,,tumors_C,60,7129,2
none,knn,f1,0.6571428571428571,0.6974789915966387,0.5555555555555556,0.48571428571428577,0.7333333333333332,0.6258450046685342,0.09191512335096194,,tumors_C,60,7129,2
none,knn,model_time,0.00156840801355429,0.001273001980734989,0.0012732809991575778,0.0012590109836310148,0.001243475009687245,0.0013234353973530233,0.00012297539960308702,,tumors_C,60,7129,2
none,knn,reducer_time,2.0370061974972486e-06,2.90299067273736e-06,2.2859894670546055e-06,2.502987626940012e-06,2.635002601891756e-06,2.4727953132241966e-06,2.956685323805248e-07,,tumors_C,60,7129,2
none,xgboost,accuracy,0.5833333333333334,0.6666666666666666,0.5833333333333334,0.5,0.75,0.6166666666666667,0.08498365855987974,,tumors_C,60,7129,2
none,xgboost,f1,0.4957983193277311,0.5555555555555555,0.4957983193277311,0.33333333333333326,0.6974789915966387,0.5155929038281979,0.11720218824310048,,tumors_C,60,7129,2
none,xgboost,model_time,0.3086425609944854,0.27633494400652125,0.28208620799705386,0.2711001060088165,0.23321500001475215,0.27427576380432583,0.024258570180947337,,tumors_C,60,7129,2
none,xgboost,reducer_time,2.0370061974972486e-06,2.90299067273736e-06,2.2859894670546055e-06,2.502987626940012e-06,2.635002601891756e-06,2.4727953132241966e-06,2.956685323805248e-07,,tumors_C,60,7129,2
tsne,knn,accuracy,0.5,0.6666666666666666,0.4166666666666667,0.5,0.5,0.5166666666666666,0.08164965809277258,12,tumors_C,60,7129,2
tsne,knn,f1,0.33333333333333326,0.5555555555555555,0.37777777777777777,0.4375,0.33333333333333326,0.4074999999999999,0.08331296047264225,12,tumors_C,60,7129,2
tsne,knn,model_time,0.013025834021391347,0.01356439499068074,0.013074880000203848,0.013361646007979289,0.012866111006587744,0.013178573205368593,0.0002506345011619599,12,tumors_C,60,7129,2
tsne,knn,reducer_time,0.31714766001095995,5.416100746981101,0.31610258200089447,4.30409446900012,0.32376418201602064,2.135441928001819,2.252294034372093,12,tumors_C,60,7129,2
tsne,xgboost,accuracy,0.4166666666666667,0.5833333333333334,0.4166666666666667,0.3333333333333333,0.5,0.45,0.08498365855987976,12,tumors_C,60,7129,2
tsne,xgboost,f1,0.2941176470588235,0.3684210526315789,0.29411764705882354,0.3142857142857143,0.33333333333333326,0.3208550788736547,0.027896830519235707,12,tumors_C,60,7129,2
tsne,xgboost,model_time,0.012664866982959211,0.012787778017809615,0.012754966010106727,0.013270850002299994,0.013142392999725416,0.012924170802580192,0.0002376043430784645,12,tumors_C,60,7129,2
tsne,xgboost,reducer_time,0.31714766001095995,5.416100746981101,0.31610258200089447,4.30409446900012,0.32376418201602064,2.135441928001819,2.252294034372093,12,tumors_C,60,7129,2
umap,knn,accuracy,0.6666666666666666,0.5,0.5833333333333334,0.5833333333333334,0.5833333333333334,0.5833333333333334,0.05270462766947298,12,tumors_C,60,7129,2
umap,knn,f1,0.5555555555555556,0.4375,0.5555555555555556,0.4957983193277311,0.5555555555555556,0.5199929971988796,0.04729601187152878,12,tumors_C,60,7129,2
umap,knn,model_time,0.014885380020132288,0.014591948012821376,0.01492313900962472,0.013585384003818035,0.014007265999680385,0.01439862340921536,0.0005222914834060515,12,tumors_C,60,7129,2
umap,knn,reducer_time,0.9328073569922708,0.949100854981225,1.1275932629941963,0.9719185149879195,1.1219639579940122,1.0206767895899247,0.08592059556454591,12,tumors_C,60,7129,2
umap,xgboost,accuracy,0.6666666666666666,0.75,0.5833333333333334,0.6666666666666666,0.5833333333333334,0.65,0.06236095644623234,12,tumors_C,60,7129,2
umap,xgboost,f1,0.625,0.6974789915966387,0.5804195804195804,0.5555555555555555,0.5555555555555556,0.6028019366254661,0.05370644220822643,12,tumors_C,60,7129,2
umap,xgboost,model_time,0.010561251023318619,0.014005547011038288,0.011010817979695275,0.011328135005896911,0.011073726986069232,0.011595895601203665,0.0012299252775421169,12,tumors_C,60,7129,2
umap,xgboost,reducer_time,0.9328073569922708,0.949100854981225,1.1275932629941963,0.9719185149879195,1.1219639579940122,1.0206767895899247,0.08592059556454591,12,tumors_C,60,7129,2
pacmap,knn,accuracy,0.6666666666666666,0.5833333333333334,0.5833333333333334,0.5833333333333334,0.5833333333333334,0.6000000000000001,0.033333333333333305,12,tumors_C,60,7129,2
pacmap,knn,f1,0.5555555555555556,0.3684210526315789,0.5555555555555556,0.4957983193277311,0.5555555555555556,0.5061772077251954,0.07266242948582388,12,tumors_C,60,7129,2
pacmap,knn,model_time,0.013693365006474778,0.013490609009750187,0.015397363982629031,0.013965518999611959,0.014174301002640277,0.014144231600221246,0.0006683840672170489,12,tumors_C,60,7129,2
pacmap,knn,reducer_time,0.23017966499901377,0.23235300701344386,0.22702426600153558,0.23208780601271428,0.23034802498295903,0.2303985538019333,0.001903141824306099,12,tumors_C,60,7129,2
pacmap,xgboost,accuracy,0.3333333333333333,0.4166666666666667,0.5,0.6666666666666666,0.5,0.4833333333333333,0.11055415967851333,12,tumors_C,60,7129,2
pacmap,xgboost,f1,0.3142857142857143,0.29411764705882354,0.4375,0.4,0.4375,0.37668067226890756,0.061076273970699264,12,tumors_C,60,7129,2
pacmap,xgboost,model_time,0.04889943602029234,0.011317988013615832,0.012228462001075968,0.0136205579910893,0.015828938980121166,0.020379076601238923,0.014341046491243114,12,tumors_C,60,7129,2
pacmap,xgboost,reducer_time,0.23017966499901377,0.23235300701344386,0.22702426600153558,0.23208780601271428,0.23034802498295903,0.2303985538019333,0.001903141824306099,12,tumors_C,60,7129,2
