method,model,metric,0,1,2,3,4,mean,std,pca_n_components,dataset,n_samples,n_features,n_classes
none,knn,accuracy,0.9917355371900827,0.9752066115702479,0.9504132231404959,0.9834710743801653,0.9666666666666667,0.9734986225895318,0.014244741939930406,,AP_Breast_Kidney,604,10935,2
none,knn,f1,0.9915485087658029,0.9746455262974087,0.9491596638655462,0.9830532212885155,0.9660633484162896,0.9728940537267127,0.014589344273405924,,AP_Breast_Kidney,604,10935,2
none,knn,model_time,0.1947206940021715,0.042360332001408096,0.045188258998678066,0.03112457300449023,0.07501253800000995,0.07768127920135157,0.060293016778747335,,AP_Breast_Kidney,604,10935,2
none,knn,reducer_time,4.897003236692399e-06,3.7470017559826374e-06,4.1099992813542485e-06,4.0520026232115924e-06,3.029999788850546e-06,3.967201337218285e-06,6.031498455708147e-07,,AP_Breast_Kidney,604,10935,2
none,xgboost,accuracy,0.9917355371900827,0.9752066115702479,0.9504132231404959,0.9834710743801653,0.975,0.9751652892561984,0.01382933829352559,,AP_Breast_Kidney,604,10935,2
none,xgboost,f1,0.9915485087658029,0.9746455262974087,0.9491596638655462,0.9830532212885155,0.9746031746031745,0.9746020189640896,0.014183946309203848,,AP_Breast_Kidney,604,10935,2
none,xgboost,model_time,7.353585541000939,7.361435610997432,6.50806384000316,7.206066373000795,7.246160119997512,7.135062296999967,0.31922050548760333,,AP_Breast_Kidney,604,10935,2
none,xgboost,reducer_time,4.897003236692399e-06,3.7470017559826374e-06,4.1099992813542485e-06,4.0520026232115924e-06,3.029999788850546e-06,3.967201337218285e-06,6.031498455708147e-07,,AP_Breast_Kidney,604,10935,2
tsne,knn,accuracy,0.9752066115702479,0.9586776859504132,0.9338842975206612,0.9669421487603306,0.95,0.9569421487603306,0.01425805473600307,100,AP_Breast_Kidney,604,10935,2
tsne,knn,f1,0.9745102169791446,0.9577425438290145,0.931830985915493,0.9661064425770308,0.9490950226244343,0.9558570423850234,0.014693689415185326,100,AP_Breast_Kidney,604,10935,2
tsne,knn,model_time,0.01770518400007859,0.01765512400015723,0.018233089002023917,0.017517688000225462,0.018085957002767827,0.017839408401050603,0.0002724891099209078,100,AP_Breast_Kidney,604,10935,2
tsne,knn,reducer_time,1.0639031360042281,1.0804285179983708,0.9614716639989638,1.0563905859962688,1.0528676079993602,1.0430123023994384,0.04186019911484137,100,AP_Breast_Kidney,604,10935,2
tsne,xgboost,accuracy,0.9834710743801653,0.9008264462809917,0.9338842975206612,0.9421487603305785,0.9333333333333333,0.938732782369146,0.026467851625474485,100,AP_Breast_Kidney,604,10935,2
tsne,xgboost,f1,0.9830532212885155,0.8999999999999999,0.9322128851540616,0.9408395613606203,0.9324134046747395,0.9377038144955874,0.026631252218008297,100,AP_Breast_Kidney,604,10935,2
tsne,xgboost,model_time,0.021850293000170495,0.02245428500464186,0.031149613998422865,0.02237429900560528,0.023036019003484398,0.02417290200246498,0.003508565032345057,100,AP_Breast_Kidney,604,10935,2
tsne,xgboost,reducer_time,1.0639031360042281,1.0804285179983708,0.9614716639989638,1.0563905859962688,1.0528676079993602,1.0430123023994384,0.04186019911484137,100,AP_Breast_Kidney,604,10935,2
umap,knn,accuracy,0.9752066115702479,0.9586776859504132,0.9338842975206612,0.9752066115702479,0.9416666666666667,0.9569283746556474,0.016942238347766442,100,AP_Breast_Kidney,604,10935,2
umap,knn,f1,0.9745102169791446,0.9577425438290145,0.931830985915493,0.9745102169791446,0.9404719722202537,0.9558131871846101,0.01739758096766196,100,AP_Breast_Kidney,604,10935,2
umap,knn,model_time,0.016385722999984864,0.017160505005449522,0.01706686199759133,0.016502467995451298,0.016285005993267987,0.016680112798349002,0.00036185191240513333,100,AP_Breast_Kidney,604,10935,2
umap,knn,reducer_time,1.6843626990012126,1.6587718769951607,1.7980611000020872,1.6875757879970479,1.8797665589954704,1.7417076045981958,0.08406309298737136,100,AP_Breast_Kidney,604,10935,2
umap,xgboost,accuracy,0.9752066115702479,0.9504132231404959,0.9421487603305785,0.9752066115702479,0.9333333333333333,0.9552617079889807,0.017157559117709668,100,AP_Breast_Kidney,604,10935,2
umap,xgboost,f1,0.9745102169791446,0.9496392896781354,0.9408395613606203,0.9745102169791446,0.9324134046747395,0.9543825379343568,0.017313580577891605,100,AP_Breast_Kidney,604,10935,2
umap,xgboost,model_time,0.016195453004911542,0.01621717899979558,0.016817858995636925,0.017729138002323452,0.0983714690009947,0.03306621960073244,0.03265738455002976,100,AP_Breast_Kidney,604,10935,2
umap,xgboost,reducer_time,1.6843626990012126,1.6587718769951607,1.7980611000020872,1.6875757879970479,1.8797665589954704,1.7417076045981958,0.08406309298737136,100,AP_Breast_Kidney,604,10935,2
pacmap,knn,accuracy,0.9669421487603306,0.9586776859504132,0.9173553719008265,0.9504132231404959,0.95,0.9486776859504132,0.016848967700958343,100,AP_Breast_Kidney,604,10935,2
pacmap,knn,f1,0.9659154929577465,0.9577425438290145,0.9142573696145125,0.9485544217687074,0.9490950226244343,0.9471129701588831,0.017618283127827372,100,AP_Breast_Kidney,604,10935,2
pacmap,knn,model_time,0.019060163001995534,0.017779001005692407,0.01896015399688622,0.01835280699742725,0.017673823997029103,0.018365189799806104,0.0005759735162240234,100,AP_Breast_Kidney,604,10935,2
pacmap,knn,reducer_time,0.7115585949941305,0.6734784349973779,0.6652401259998442,0.7591071510032634,0.7035182600011467,0.7025805133991525,0.033220420151092556,100,AP_Breast_Kidney,604,10935,2
pacmap,xgboost,accuracy,0.9669421487603306,0.9586776859504132,0.9173553719008265,0.9586776859504132,0.95,0.9503305785123967,0.017336471408531937,100,AP_Breast_Kidney,604,10935,2
pacmap,xgboost,f1,0.9659154929577465,0.9577425438290145,0.9142573696145125,0.9572649572649572,0.9490950226244343,0.948855077258133,0.0180987838021983,100,AP_Breast_Kidney,604,10935,2
pacmap,xgboost,model_time,0.03537531899928581,0.02097573700302746,0.02011529399896972,0.01938921199325705,0.022634861998085398,0.023698084798525088,0.005938050077050522,100,AP_Breast_Kidney,604,10935,2
pacmap,xgboost,reducer_time,0.7115585949941305,0.6734784349973779,0.6652401259998442,0.7591071510032634,0.7035182600011467,0.7025805133991525,0.033220420151092556,100,AP_Breast_Kidney,604,10935,2
