method,model,metric,0,1,2,3,4,mean,std,pca_n_components,dataset,n_samples,n_features,n_classes
none,knn,accuracy,0.48717948717948717,0.5384615384615384,0.5641025641025641,0.5384615384615384,0.5,0.5256410256410257,0.028088336282316207,,flags,194,120,8
none,knn,f1,0.2932900432900433,0.2880735930735931,0.3235406698564593,0.27037037037037037,0.3790457662638113,0.31086408857085546,0.03815083708743414,,flags,194,120,8
none,knn,model_time,0.0009935530033544637,0.0009772789999260567,0.000976693001575768,0.0009886370025924407,0.0009965579956769943,0.0009865440006251447,8.205721097113853e-06,,flags,194,120,8
none,knn,reducer_time,1.7599959392100573e-06,2.0700026652775705e-06,5.9710000641644e-06,2.54599581239745e-06,2.2849999368190765e-06,2.926398883573711e-06,1.543995192067944e-06,,flags,194,120,8
none,xgboost,accuracy,0.358974358974359,0.5384615384615384,0.3333333333333333,0.38461538461538464,0.47368421052631576,0.41781376518218616,0.07665317139001349,,flags,194,120,8
none,xgboost,f1,0.11067193675889328,0.35803751803751804,0.23293740573152338,0.2058080808080808,0.26226490596238494,0.2339439694596801,0.08023704841277296,,flags,194,120,8
none,xgboost,model_time,0.0898224240008858,0.09014297200337751,0.1230170429989812,0.08577856999909272,0.0917789509985596,0.09610799200017936,0.013598708829608383,,flags,194,120,8
none,xgboost,reducer_time,1.7599959392100573e-06,2.0700026652775705e-06,5.9710000641644e-06,2.54599581239745e-06,2.2849999368190765e-06,2.926398883573711e-06,1.543995192067944e-06,,flags,194,120,8
tsne,knn,accuracy,0.2564102564102564,0.4358974358974359,0.23076923076923078,0.358974358974359,0.23684210526315788,0.303778677462888,0.08069272694014648,38,flags,194,120,8
tsne,knn,f1,0.132730364873222,0.21590909090909086,0.12056159420289855,0.17229166666666665,0.15379963951392522,0.15905847123316064,0.033496102625688334,38,flags,194,120,8
tsne,knn,model_time,0.015036525997857098,0.015347872998972889,0.015085439998074435,0.015105567996215541,0.015255293001246173,0.015166139998473226,0.00011658163496162789,38,flags,194,120,8
tsne,knn,reducer_time,0.5519736459973501,0.5458286979992408,0.5489612530000159,0.5589061790014966,0.552033180007129,0.5515405912010465,0.004334991887852826,38,flags,194,120,8
tsne,xgboost,accuracy,0.28205128205128205,0.3333333333333333,0.20512820512820512,0.3076923076923077,0.23684210526315788,0.27300944669365723,0.046560855824652046,38,flags,194,120,8
tsne,xgboost,f1,0.1465825840825841,0.19211525189786058,0.11123366013071896,0.17500915750915752,0.14135610766045548,0.15325935225615533,0.028054447880079294,38,flags,194,120,8
tsne,xgboost,model_time,0.1034232689999044,0.10447243000089657,0.10573540000041248,0.1044151750029414,0.10166082999785431,0.10394142080040183,0.0013560494742101343,38,flags,194,120,8
tsne,xgboost,reducer_time,0.5519736459973501,0.5458286979992408,0.5489612530000159,0.5589061790014966,0.552033180007129,0.5515405912010465,0.004334991887852826,38,flags,194,120,8
umap,knn,accuracy,0.41025641025641024,0.3333333333333333,0.38461538461538464,0.3076923076923077,0.2894736842105263,0.34507422402159244,0.04569222470692312,38,flags,194,120,8
umap,knn,f1,0.31491228070175437,0.18094030715734571,0.22342167636285282,0.16616716616716615,0.2216192537621109,0.22141213683024602,0.05183885382835184,38,flags,194,120,8
umap,knn,model_time,0.014736971999809612,0.014775252995605115,0.015668239000660833,0.015014864002296235,0.014843053999356925,0.015007676399545745,0.0003437431183325732,38,flags,194,120,8
umap,knn,reducer_time,1.2583424210024532,1.0562739749948378,1.0864874539984157,1.2505826199994772,1.132908818006399,1.1569190576003165,0.08333798246785144,38,flags,194,120,8
umap,xgboost,accuracy,0.28205128205128205,0.3076923076923077,0.38461538461538464,0.3076923076923077,0.21052631578947367,0.29851551956815114,0.0558476225820234,38,flags,194,120,8
umap,xgboost,f1,0.19781409067123354,0.15516101545513308,0.16625615763546797,0.1803610333022098,0.12242424242424242,0.16440330789765736,0.02538513094469082,38,flags,194,120,8
umap,xgboost,model_time,0.07397278300049948,0.07955596799729392,0.07458810699608875,0.0779166689972044,0.0730970709992107,0.07582611959805945,0.0024777975652949934,38,flags,194,120,8
umap,xgboost,reducer_time,1.2583424210024532,1.0562739749948378,1.0864874539984157,1.2505826199994772,1.132908818006399,1.1569190576003165,0.08333798246785144,38,flags,194,120,8
pacmap,knn,accuracy,0.1794871794871795,0.3333333333333333,0.28205128205128205,0.38461538461538464,0.3157894736842105,0.29905533063427797,0.06835380938448159,38,flags,194,120,8
pacmap,knn,f1,0.10773670773670772,0.14114145658263305,0.13095238095238096,0.17340686274509803,0.21505875077303652,0.15365923175797128,0.037258673745092605,38,flags,194,120,8
pacmap,knn,model_time,0.014955965001718141,0.014930735000234563,0.015014014003099874,0.015279522005585022,0.015150033999816515,0.015066054002090823,0.00013096580492267095,38,flags,194,120,8
pacmap,knn,reducer_time,0.3067414480028674,0.3207107230045949,0.3332595720057725,0.3166869990018313,0.33909555900027044,0.3232988602030673,0.011604434789992703,38,flags,194,120,8
pacmap,xgboost,accuracy,0.28205128205128205,0.46153846153846156,0.1282051282051282,0.3333333333333333,0.34210526315789475,0.30944669365721994,0.10804450305191096,38,flags,194,120,8
pacmap,xgboost,f1,0.17500000000000002,0.27429361488185017,0.06545454545454545,0.16025641025641024,0.20234113712374582,0.17546914154331034,0.06756217775750555,38,flags,194,120,8
pacmap,xgboost,model_time,0.10895508999965386,0.10285994900186779,0.1042783429948031,0.08605838599760318,0.09441068500018446,0.09931249059882248,0.008123088836788856,38,flags,194,120,8
pacmap,xgboost,reducer_time,0.3067414480028674,0.3207107230045949,0.3332595720057725,0.3166869990018313,0.33909555900027044,0.3232988602030673,0.011604434789992703,38,flags,194,120,8
