method,model,metric,0,1,2,3,4,mean,std,pca_n_components,dataset,n_samples,n_features,n_classes
none,knn,accuracy,0.9650485436893204,0.962135922330097,0.9669902912621359,0.9626213592233009,0.9596891694997571,0.9632970572009223,0.002511148675780704,,har,10299,561,6
none,knn,f1,0.9659721017987501,0.9633876704415836,0.9685038333200605,0.9638282199596041,0.9613492301567983,0.9646082111353593,0.0024394725981515732,,har,10299,561,6
none,knn,model_time,0.15125763099786127,0.173998329002643,0.16178717400180176,0.16045940600452013,0.1917976569966413,0.1678600394006935,0.013985543743446509,,har,10299,561,6
none,knn,reducer_time,3.220993676222861e-06,2.7839996619150043e-06,2.710999979171902e-06,3.007000486832112e-06,4.595000064000487e-06,3.263598773628473e-06,6.892993553902742e-07,,har,10299,561,6
none,xgboost,accuracy,0.9825242718446602,0.9888349514563107,0.9733009708737864,0.9791262135922331,0.9868868382710053,0.9821346492075993,0.005562620150160041,,har,10299,561,6
none,xgboost,f1,0.9829795666380488,0.9888013060930859,0.9745459778538764,0.9792452129241463,0.9871582621780891,0.9825460651374494,0.005205484538150772,,har,10299,561,6
none,xgboost,model_time,11.053029197006254,10.985504848998971,11.04506504299934,10.939901867001026,11.178352656999778,11.040370722601073,0.08040589887611657,,har,10299,561,6
none,xgboost,reducer_time,3.220993676222861e-06,2.7839996619150043e-06,2.710999979171902e-06,3.007000486832112e-06,4.595000064000487e-06,3.263598773628473e-06,6.892993553902742e-07,,har,10299,561,6
tsne,knn,accuracy,0.9067961165048544,0.9116504854368932,0.9135922330097087,0.9116504854368932,0.9203496843127732,0.9128078009402245,0.00438895082168245,100,har,10299,561,6
tsne,knn,f1,0.9103869914867159,0.9158665430965542,0.9178236686396949,0.9159029581343251,0.9241391530450827,0.9168238628804746,0.004420654291132407,100,har,10299,561,6
tsne,knn,model_time,0.07654938199993921,0.07513556800404331,0.07542239199392498,0.07491846499760868,0.07623068300017621,0.07565129799913847,0.0006320856662061869,100,har,10299,561,6
tsne,knn,reducer_time,20.87757941900054,20.522968224999204,21.281125273002544,21.236680779999006,20.898705020001216,20.963411743400503,0.27610233397142764,100,har,10299,561,6
tsne,xgboost,accuracy,0.8946601941747573,0.9077669902912622,0.9048543689320389,0.9004854368932039,0.9052938319572608,0.9026121644497046,0.004616229031833172,100,har,10299,561,6
tsne,xgboost,f1,0.8995247910606379,0.9123884489304875,0.9102599765301668,0.905646661971332,0.9100747212251784,0.9075789199435604,0.004585875499137995,100,har,10299,561,6
tsne,xgboost,model_time,0.2006679330006591,0.1999599289993057,0.19946867500402732,0.20120050500554498,0.20073056900582742,0.2004055222030729,0.0006136364533663555,100,har,10299,561,6
tsne,xgboost,reducer_time,20.87757941900054,20.522968224999204,21.281125273002544,21.236680779999006,20.898705020001216,20.963411743400503,0.27610233397142764,100,har,10299,561,6
umap,knn,accuracy,0.9184466019417475,0.9077669902912622,0.9131067961165048,0.904368932038835,0.9096648858669257,0.9106708412510549,0.004807383628878399,100,har,10299,561,6
umap,knn,f1,0.922115992032642,0.9121036134881102,0.9175110631079181,0.9091657730346158,0.9124008423048052,0.9146594567936182,0.004594470850878749,100,har,10299,561,6
umap,knn,model_time,0.05746814900339814,0.05722990300273523,0.05784843499714043,0.0572476090019336,0.0559746750004706,0.057153754201135595,0.0006302794023425353,100,har,10299,561,6
umap,knn,reducer_time,12.586450139002409,12.656242792996636,12.615521877996798,13.808831327005464,12.72672716100351,12.878754659600963,0.4674184267726766,100,har,10299,561,6
umap,xgboost,accuracy,0.9116504854368932,0.8961165048543689,0.9116504854368932,0.9053398058252428,0.9086935405536668,0.906690164421413,0.005776656992733904,100,har,10299,561,6
umap,xgboost,f1,0.9153716682899834,0.901299114042056,0.9153436748571001,0.9101803731431618,0.9122014700275912,0.9108792600719784,0.005179355385208526,100,har,10299,561,6
umap,xgboost,model_time,0.16133070400246652,0.15764377299638,0.15865481099899625,0.16112633699958678,0.16230616199754877,0.16021235739899567,0.0017603211158322932,100,har,10299,561,6
umap,xgboost,reducer_time,12.586450139002409,12.656242792996636,12.615521877996798,13.808831327005464,12.72672716100351,12.878754659600963,0.4674184267726766,100,har,10299,561,6
pacmap,knn,accuracy,0.9014563106796116,0.8975728155339806,0.891747572815534,0.8966019417475728,0.896551724137931,0.896786072982926,0.0030953316983798732,100,har,10299,561,6
pacmap,knn,f1,0.9043921601670277,0.9014132009641919,0.8962742343406164,0.899191257864857,0.9001307874973311,0.9002803281668047,0.0026626222958487087,100,har,10299,561,6
pacmap,knn,model_time,0.06834910800534999,0.07547977499780245,0.07184787100413814,0.06759671500185505,0.06921544500073651,0.07049778280197642,0.002874730331420158,100,har,10299,561,6
pacmap,knn,reducer_time,8.405952916997194,8.470528011996066,8.430588002003788,8.413117535004858,8.456901634999667,8.435417620200315,0.024831795144317832,100,har,10299,561,6
pacmap,xgboost,accuracy,0.8888349514563106,0.891747572815534,0.8922330097087379,0.883495145631068,0.8892666342884895,0.889115462780028,0.0031092316212954427,100,har,10299,561,6
pacmap,xgboost,f1,0.8921162551792938,0.8958942891767853,0.8966849738299616,0.8856058878305358,0.8918873066899412,0.8924377425413036,0.003925996963881956,100,har,10299,561,6
pacmap,xgboost,model_time,0.19559463699988555,0.18602299699705327,0.19271382999431808,0.19067064300179482,0.20974066999770002,0.19494855539815034,0.008027256077080533,100,har,10299,561,6
pacmap,xgboost,reducer_time,8.405952916997194,8.470528011996066,8.430588002003788,8.413117535004858,8.456901634999667,8.435417620200315,0.024831795144317832,100,har,10299,561,6
