method,model,metric,0,1,2,3,4,mean,std,pca_n_components,dataset,n_samples,n_features,n_classes
none,knn,accuracy,0.8194444444444444,0.8194444444444444,0.8379629629629629,0.8935185185185185,0.8009259259259259,0.8342592592592591,0.03186046395200972,,cnae-9,1080,856,9
none,knn,f1,0.8190458334945956,0.8132969775603144,0.8345942620349293,0.8940546481463874,0.7985919753595687,0.8319167393191591,0.03313965744837363,,cnae-9,1080,856,9
none,knn,model_time,0.004897677004919387,0.005103596005938016,0.005283373000565916,0.005334929999662563,0.004573172001983039,0.005038549602613784,0.00027872289840450326,,cnae-9,1080,856,9
none,knn,reducer_time,3.2130046747624874e-06,3.631001163739711e-06,3.421999281272292e-06,3.8049984141252935e-06,2.286004018969834e-06,3.2714015105739236e-06,5.312505362761157e-07,,cnae-9,1080,856,9
none,xgboost,accuracy,0.5925925925925926,0.6018518518518519,0.7592592592592593,0.7453703703703703,0.6759259259259259,0.675,0.06956162952219612,,cnae-9,1080,856,9
none,xgboost,f1,0.591954200113404,0.6078454803086819,0.7632482825035487,0.7522514237380536,0.6911405890364916,0.6812879951400359,0.07102774166225188,,cnae-9,1080,856,9
none,xgboost,model_time,0.5760202810051851,0.6184765799989691,0.5940844989963807,0.5765226120056468,0.5630131290017744,0.5856234202015912,0.019168673524420615,,cnae-9,1080,856,9
none,xgboost,reducer_time,3.2130046747624874e-06,3.631001163739711e-06,3.421999281272292e-06,3.8049984141252935e-06,2.286004018969834e-06,3.2714015105739236e-06,5.312505362761157e-07,,cnae-9,1080,856,9
tsne,knn,accuracy,0.7916666666666666,0.8194444444444444,0.8009259259259259,0.7870370370370371,0.7962962962962963,0.7990740740740742,0.01118800553110607,100,cnae-9,1080,856,9
tsne,knn,f1,0.784612105479004,0.8219881145567238,0.8008144072902558,0.7856090416382373,0.8001997860889871,0.7986446910106416,0.013556423005730485,100,cnae-9,1080,856,9
tsne,knn,model_time,0.020499547994404566,0.020577989002049435,0.020667640994361136,0.021035024998127483,0.020385106996400282,0.02063306199706858,0.00022140942496569522,100,cnae-9,1080,856,9
tsne,knn,reducer_time,4.072922858998936,4.170593378003105,4.087227074000111,4.06576856400352,4.138900009995268,4.107082377000188,0.04077731204831547,100,cnae-9,1080,856,9
tsne,xgboost,accuracy,0.8101851851851852,0.8009259259259259,0.8055555555555556,0.7777777777777778,0.8055555555555556,0.8,0.011490438561102653,100,cnae-9,1080,856,9
tsne,xgboost,f1,0.8022400375758911,0.8043958512772791,0.8017435532237938,0.7824453665879072,0.8080445477938109,0.7997738712917364,0.0089443332575875,100,cnae-9,1080,856,9
tsne,xgboost,model_time,0.1502138349969755,0.16049151900369907,0.15539921600429807,0.15626705400063656,0.15437824899709085,0.15534997460054,0.0033046367082414448,100,cnae-9,1080,856,9
tsne,xgboost,reducer_time,4.072922858998936,4.170593378003105,4.087227074000111,4.06576856400352,4.138900009995268,4.107082377000188,0.04077731204831547,100,cnae-9,1080,856,9
umap,knn,accuracy,0.7592592592592593,0.7685185185185185,0.7175925925925926,0.7407407407407407,0.7592592592592593,0.749074074074074,0.018144368465060595,100,cnae-9,1080,856,9
umap,knn,f1,0.7547898166392076,0.773080461987962,0.7235857294732417,0.7404416952521472,0.7613087724811975,0.7506412951667512,0.01714967628677336,100,cnae-9,1080,856,9
umap,knn,model_time,0.018113562000507955,0.020040839997818694,0.01882957000634633,0.01871835999918403,0.018032526997558307,0.018746971800283063,0.0007201909971657047,100,cnae-9,1080,856,9
umap,knn,reducer_time,2.5409155620000092,2.5239078190061264,2.6854313949952484,2.512241512995388,2.6902370679963497,2.5905466713986245,0.07997120412586257,100,cnae-9,1080,856,9
umap,xgboost,accuracy,0.75,0.7731481481481481,0.7407407407407407,0.75,0.7453703703703703,0.7518518518518518,0.011188005531106092,100,cnae-9,1080,856,9
umap,xgboost,f1,0.7439650653512943,0.771629335769751,0.751240082303446,0.7490554489265265,0.7504158512483795,0.7532611567198795,0.009525500505560888,100,cnae-9,1080,856,9
umap,xgboost,model_time,0.1460944060017937,0.13095506900572218,0.12160028799553402,0.13188918800005922,0.11897107499680715,0.12990200519998324,0.00954626027547649,100,cnae-9,1080,856,9
umap,xgboost,reducer_time,2.5409155620000092,2.5239078190061264,2.6854313949952484,2.512241512995388,2.6902370679963497,2.5905466713986245,0.07997120412586257,100,cnae-9,1080,856,9
pacmap,knn,accuracy,0.6342592592592593,0.6203703703703703,0.6203703703703703,0.6203703703703703,0.6435185185185185,0.6277777777777778,0.009532990871284265,100,cnae-9,1080,856,9
pacmap,knn,f1,0.6293948533802615,0.6066427606968889,0.6097457864753462,0.6166822872983461,0.6408037715382874,0.620653891877826,0.01275534602976271,100,cnae-9,1080,856,9
pacmap,knn,model_time,0.019460641000478063,0.01947505900170654,0.019458825001493096,0.01938753900321899,0.02121200499823317,0.019798813801025973,0.0007072519658644538,100,cnae-9,1080,856,9
pacmap,knn,reducer_time,1.3746891599948867,1.280196233994502,1.3196388360011042,1.378228402005334,1.33531211099762,1.3376129485986894,0.036467251610722416,100,cnae-9,1080,856,9
pacmap,xgboost,accuracy,0.6574074074074074,0.6111111111111112,0.5601851851851852,0.6203703703703703,0.5972222222222222,0.6092592592592593,0.0316173538499331,100,cnae-9,1080,856,9
pacmap,xgboost,f1,0.6702160503760091,0.6017516539462752,0.5530026628318078,0.6019008723146785,0.5773634945056145,0.6008469467948769,0.03912684455726472,100,cnae-9,1080,856,9
pacmap,xgboost,model_time,0.16292273699946236,0.16377352700510528,0.1640729669961729,0.1696473080010037,0.16083566100132884,0.16425044000061462,0.0029260429853112785,100,cnae-9,1080,856,9
pacmap,xgboost,reducer_time,1.3746891599948867,1.280196233994502,1.3196388360011042,1.378228402005334,1.33531211099762,1.3376129485986894,0.036467251610722416,100,cnae-9,1080,856,9
