method,model,metric,0,1,2,3,4,mean,std,pca_n_components,dataset,n_samples,n_features,n_classes
none,knn,accuracy,0.665,0.71,0.78,0.71,0.725,0.7180000000000001,0.03695943722515266,,credit-g,1000,61,2
none,knn,f1,0.556276697903904,0.5629897528631705,0.6984649122807018,0.608055142586836,0.649133998915505,0.6149841009100234,0.05354109311711193,,credit-g,1000,61,2
none,knn,model_time,0.0016381099994760007,0.0015643629885744303,0.0016151410090969875,0.0016333130042767152,0.0016436990117654204,0.0016189252026379108,2.8914225594564606e-05,,credit-g,1000,61,2
none,knn,reducer_time,2.0769948605448008e-06,1.791006070561707e-06,2.130007487721741e-06,1.7749989638105035e-06,1.930995495058596e-06,1.9408005755394695e-06,1.4448034237387132e-07,,credit-g,1000,61,2
none,xgboost,accuracy,0.685,0.715,0.725,0.67,0.73,0.705,0.023452078799117117,,credit-g,1000,61,2
none,xgboost,f1,0.5827676413126263,0.550455459600142,0.6025867986560208,0.5907738095238095,0.6245306633291614,0.590222874484352,0.024360715564113452,,credit-g,1000,61,2
none,xgboost,model_time,0.033010580998961814,0.03261907100386452,0.03344236301199999,0.033610537997446954,0.038592451994190924,0.03425500100129284,0.002196089355169682,,credit-g,1000,61,2
none,xgboost,reducer_time,2.0769948605448008e-06,1.791006070561707e-06,2.130007487721741e-06,1.7749989638105035e-06,1.930995495058596e-06,1.9408005755394695e-06,1.4448034237387132e-07,,credit-g,1000,61,2
tsne,knn,accuracy,0.66,0.675,0.62,0.665,0.605,0.645,0.02738612787525833,100,credit-g,1000,61,2
tsne,knn,f1,0.5466666666666666,0.5446744422261918,0.46357989836250707,0.556276697903904,0.5074659434521026,0.5237327297222744,0.03437034217906207,100,credit-g,1000,61,2
tsne,knn,model_time,0.022422480993554927,0.019704385005752556,0.020775476994458586,0.019694196002092212,0.019844162990921177,0.020488140397355893,0.0010472404670155261,100,credit-g,1000,61,2
tsne,knn,reducer_time,4.00246896900353,3.6071475179924164,3.583939507996547,4.1165021670021815,4.101220208001905,3.882255673999316,0.2374637468461201,100,credit-g,1000,61,2
tsne,xgboost,accuracy,0.675,0.655,0.655,0.645,0.615,0.649,0.01959591794226544,100,credit-g,1000,61,2
tsne,xgboost,f1,0.5637437497902615,0.5092286354422276,0.4659236038546383,0.5168589023850839,0.4760300772345276,0.5063569937413478,0.03454376083630574,100,credit-g,1000,61,2
tsne,xgboost,model_time,0.03411207899625879,0.03511173999868333,0.0359027509985026,0.03651211399119347,0.03274181300366763,0.03487609939766116,0.0013360381235545656,100,credit-g,1000,61,2
tsne,xgboost,reducer_time,4.00246896900353,3.6071475179924164,3.583939507996547,4.1165021670021815,4.101220208001905,3.882255673999316,0.2374637468461201,100,credit-g,1000,61,2
umap,knn,accuracy,0.685,0.65,0.625,0.64,0.655,0.651,0.019849433241279225,100,credit-g,1000,61,2
umap,knn,f1,0.5372920568469759,0.4900932400932401,0.4823123382226057,0.5134477632112447,0.5304685107686027,0.5107227818285338,0.021614703366043448,100,credit-g,1000,61,2
umap,knn,model_time,0.019036604993743822,0.01907756099535618,0.02021375000185799,0.01765292299387511,0.01791056100046262,0.018778279997059145,0.0009204607211826947,100,credit-g,1000,61,2
umap,knn,reducer_time,2.1053019690007204,2.1133733180031413,2.217310522988555,2.075512973999139,2.22370888099249,2.147041532996809,0.061331375100966895,100,credit-g,1000,61,2
umap,xgboost,accuracy,0.635,0.68,0.67,0.65,0.63,0.6529999999999999,0.019390719429665335,100,credit-g,1000,61,2
umap,xgboost,f1,0.5633840724902061,0.5091271667433656,0.5657323332017371,0.5059288537549407,0.47769621682665164,0.5243737286033803,0.03459422572304264,100,credit-g,1000,61,2
umap,xgboost,model_time,0.027602108006249182,0.02817185599997174,0.027779429001384415,0.028317926000454463,0.02776201999222394,0.02792666780005675,0.00027104518330752284,100,credit-g,1000,61,2
umap,xgboost,reducer_time,2.1053019690007204,2.1133733180031413,2.217310522988555,2.075512973999139,2.22370888099249,2.147041532996809,0.061331375100966895,100,credit-g,1000,61,2
pacmap,knn,accuracy,0.64,0.655,0.605,0.63,0.65,0.6359999999999999,0.017720045146669368,100,credit-g,1000,61,2
pacmap,knn,f1,0.49181253529079616,0.5014270746775533,0.47680386767773764,0.513093828135281,0.5452182952182952,0.5056711201999327,0.02307581509410419,100,credit-g,1000,61,2
pacmap,knn,model_time,0.019079238991253078,0.0190334290091414,0.01887193699076306,0.020348229008959606,0.01912315600202419,0.019291198000428268,0.0005352950466592198,100,credit-g,1000,61,2
pacmap,knn,reducer_time,1.1537122699955944,1.1758649250114104,1.1762126510002417,1.2057122599944705,1.1604414190078387,1.174388705001911,0.017937184021267403,100,credit-g,1000,61,2
pacmap,xgboost,accuracy,0.655,0.625,0.66,0.675,0.665,0.656,0.01685229954635273,100,credit-g,1000,61,2
pacmap,xgboost,f1,0.5488869275277042,0.4896396856180463,0.5404784430328422,0.4873614890177057,0.5375323554788611,0.5207797801350319,0.026627750573019894,100,credit-g,1000,61,2
pacmap,xgboost,model_time,0.0327399040106684,0.03242315200623125,0.03399875600007363,0.03213459799007978,0.03146788499725517,0.03255285900086165,0.0008360070255831588,100,credit-g,1000,61,2
pacmap,xgboost,reducer_time,1.1537122699955944,1.1758649250114104,1.1762126510002417,1.2057122599944705,1.1604414190078387,1.174388705001911,0.017937184021267403,100,credit-g,1000,61,2
