method,model,metric,0,1,2,3,4,mean,std,pca_n_components,dataset,n_samples,n_features,n_classes
none,knn,accuracy,0.308,0.3085,0.30875,0.2935,0.28975,0.30169999999999997,0.008314745937188946,,CIFAR_10_small,20000,3072,10
none,knn,f1,0.28988767570523255,0.29610914571755276,0.29183959589760666,0.2733227627612237,0.27652440482825125,0.28553671698197336,0.008953611806061742,,CIFAR_10_small,20000,3072,10
none,knn,model_time,3.3955334880010923,3.372141157000442,3.3314997980050975,3.3791057630005525,3.3767139470000984,3.3709988306014567,0.021268816646635942,,CIFAR_10_small,20000,3072,10
none,knn,reducer_time,3.812994691543281e-06,4.098998033441603e-06,8.638002327643335e-06,4.636007361114025e-06,4.083005478605628e-06,5.053801578469574e-06,1.8118909253145584e-06,,CIFAR_10_small,20000,3072,10
none,xgboost,accuracy,0.5005,0.506,0.501,0.497,0.4975,0.5004,0.003215587038162708,,CIFAR_10_small,20000,3072,10
none,xgboost,f1,0.5002675572274737,0.5053689336065981,0.4997647926599694,0.49580553962451945,0.49574745086429745,0.49939085479657164,0.003543296206460245,,CIFAR_10_small,20000,3072,10
none,xgboost,model_time,530.6746889679926,528.1389759720041,527.2263680589967,520.0489988580084,526.966648725007,526.6111361164018,3.533080847025702,,CIFAR_10_small,20000,3072,10
none,xgboost,reducer_time,3.812994691543281e-06,4.098998033441603e-06,8.638002327643335e-06,4.636007361114025e-06,4.083005478605628e-06,5.053801578469574e-06,1.8118909253145584e-06,,CIFAR_10_small,20000,3072,10
tsne,knn,accuracy,0.18475,0.1765,0.18425,0.18525,0.19275,0.1847,0.005148786264742405,100,CIFAR_10_small,20000,3072,10
tsne,knn,f1,0.1758795441274085,0.16918863138645018,0.18184349184216161,0.1791769658103785,0.1856161539090126,0.17834095741508232,0.005580658896264692,100,CIFAR_10_small,20000,3072,10
tsne,knn,model_time,0.23759381400304846,0.2275627000053646,0.17997805299819447,0.2119041430123616,0.22150128200883046,0.21570799840555993,0.0197189417766841,100,CIFAR_10_small,20000,3072,10
tsne,knn,reducer_time,1479.7457194809976,1473.329748930002,1581.12093895,1736.2438170459936,1722.4638176529988,1598.5808084119985,113.50115173776935,100,CIFAR_10_small,20000,3072,10
tsne,xgboost,accuracy,0.21975,0.199,0.22875,0.22125,0.22225,0.2182,0.010080178569846863,100,CIFAR_10_small,20000,3072,10
tsne,xgboost,f1,0.2090828743124161,0.19187978584890114,0.2181281810390982,0.21104715686149836,0.21833155126251302,0.20969390986488534,0.009646693065411152,100,CIFAR_10_small,20000,3072,10
tsne,xgboost,model_time,0.8872011909988942,0.9347021049907198,0.8760475010058144,0.913323157990817,0.8874634910025634,0.8997474891977617,0.02133597712252727,100,CIFAR_10_small,20000,3072,10
tsne,xgboost,reducer_time,1479.7457194809976,1473.329748930002,1581.12093895,1736.2438170459936,1722.4638176529988,1598.5808084119985,113.50115173776935,100,CIFAR_10_small,20000,3072,10
umap,knn,accuracy,0.25775,0.257,0.2685,0.2535,0.2545,0.25825,0.005357238094391555,100,CIFAR_10_small,20000,3072,10
umap,knn,f1,0.2540398464398423,0.2518080017981933,0.26497073460061316,0.25149670099317417,0.2510136186598716,0.2546657804983389,0.005256084523654143,100,CIFAR_10_small,20000,3072,10
umap,knn,model_time,0.1227194840030279,0.1288660370046273,0.11837630299851298,0.1263437010056805,0.13143080900772475,0.12554726680391468,0.004597470813703265,100,CIFAR_10_small,20000,3072,10
umap,knn,reducer_time,19.717829112996696,20.077695005995338,19.967135707993293,20.010365811991505,19.92220634999103,19.93904639779357,0.12191765995803328,100,CIFAR_10_small,20000,3072,10
umap,xgboost,accuracy,0.2895,0.29825,0.29575,0.2955,0.29275,0.29435,0.0029857997253667327,100,CIFAR_10_small,20000,3072,10
umap,xgboost,f1,0.28537278584193515,0.29087110862618726,0.2905958913420874,0.290410712711956,0.2891753225330656,0.2892851642110463,0.0020405320102941087,100,CIFAR_10_small,20000,3072,10
umap,xgboost,model_time,0.8542224069969961,0.8660825109982397,0.8459560900082579,0.8634115759923588,0.8504756860056659,0.8560296540003037,0.0076307548753187715,100,CIFAR_10_small,20000,3072,10
umap,xgboost,reducer_time,19.717829112996696,20.077695005995338,19.967135707993293,20.010365811991505,19.92220634999103,19.93904639779357,0.12191765995803328,100,CIFAR_10_small,20000,3072,10
pacmap,knn,accuracy,0.2375,0.2485,0.23975,0.239,0.26425,0.24580000000000002,0.009994248345923768,100,CIFAR_10_small,20000,3072,10
pacmap,knn,f1,0.22562999791063681,0.23436582849263327,0.23194429734796168,0.2311675505598727,0.25573645405846934,0.23576882567391477,0.010385269976258582,100,CIFAR_10_small,20000,3072,10
pacmap,knn,model_time,0.15885922699817456,0.16114702200866304,0.15833993299747817,0.14827228400099557,0.15842949200305156,0.15700959160167258,0.004487002361505078,100,CIFAR_10_small,20000,3072,10
pacmap,knn,reducer_time,16.199066575005418,16.33860133899725,16.411206691991538,16.5653324790037,16.634578907003743,16.42975719840033,0.15633570592783583,100,CIFAR_10_small,20000,3072,10
pacmap,xgboost,accuracy,0.27,0.2845,0.2605,0.25925,0.2755,0.26995,0.009447751055145344,100,CIFAR_10_small,20000,3072,10
pacmap,xgboost,f1,0.26116769765386294,0.2714433732728495,0.2554706619754074,0.2479977754144506,0.26651835358804005,0.2605195723809221,0.008222186616943449,100,CIFAR_10_small,20000,3072,10
pacmap,xgboost,model_time,0.8943281499959994,0.9093929920054507,0.8635044949915027,0.894063986997935,0.9279021539987298,0.8978383555979235,0.02117887146489144,100,CIFAR_10_small,20000,3072,10
pacmap,xgboost,reducer_time,16.199066575005418,16.33860133899725,16.411206691991538,16.5653324790037,16.634578907003743,16.42975719840033,0.15633570592783583,100,CIFAR_10_small,20000,3072,10
